-40 944
-40 -24 912
40 -24 912
72 -24 880
-40 944
-40 -40 40 -40 -40 -40 -40 656
160 -800 16
992
-8 -16 336 -8 -8 576
64 -32 -40 -48 776
992
-40 -40 -40 -40 -40 -80 664
16 -24 40 -24 -32 816
104 -8 -8 848
